<svg width="123" height="60" viewBox="0 0 123 60" fill="none" xmlns="http://www.w3.org/2000/svg">
<path d="M103.312 48.97C109.861 46.9028 115.675 40.7548 117.931 32.3695C120.346 23.3962 118.172 14.2663 112.985 8.66382C114.159 9.13477 115.279 9.78252 116.317 10.6142C123.614 16.4592 125.027 29.0676 118.405 38.9095C114.671 44.4603 108.461 48.0646 103.312 48.97Z" fill="#C3ED87"/>
<path d="M103.313 48.9698C110.071 46.8654 116.223 40.7735 118.775 32.3831C122.616 19.7538 117.299 6.66732 106.897 3.15361C104.538 2.35657 102.12 2.12056 99.7458 2.3795C100.331 2.51506 100.915 2.6805 101.496 2.87664C112.76 6.68181 116.263 20.7459 112.198 34.1096C110.187 40.7208 108.263 45.8261 103.313 48.9698Z" fill="#A2DC50"/>
<path d="M103.314 48.9699C109.303 45.3538 114.062 38.9149 115.302 30.4654C117.374 16.3531 109.293 2.65736 97.4459 0.344771C89.1765 -1.26942 81.1818 2.9035 76.4028 10.3703C81.4413 7.64234 87.4404 6.93208 93.2811 8.8768C105.284 12.8733 112.073 26.5693 108.445 39.4676C107.412 43.1375 105.587 46.3474 103.314 48.9699Z" fill="#83CA20"/>
<path d="M70.6002 32.0608C64.5129 26.8327 63.7873 11.79 69.5783 8.33208L79.7581 6.98218C87.3106 9.68253 98.7665 11.1731 87.6718 9.66096C76.577 8.14883 70.8004 22.9362 70.6002 32.0608Z" fill="#83CA20"/>
<path d="M70.6029 32.0608C67.3396 23.923 69.0104 9.72096 82.451 3.83862L90.9212 6.52949C96.7374 12.2851 104.474 19.808 94.7838 14.1674C85.0939 8.52669 72.9644 20.7727 70.6029 32.0608Z" fill="#A2DC50"/>
<path d="M70.603 32.0608C69.0553 22.8286 75.9153 10.8023 91.2804 7.71899L97.6166 10.0117C102.371 17.3385 108.094 24.8979 98.05 18.3808C87.4672 11.514 73.6133 21.1205 70.603 32.0608Z" fill="#C3ED87"/>
<path d="M103.313 48.9699C108.866 43.8595 112.142 35.7683 111.074 27.087C109.298 12.6609 96.8449 1.61372 83.2586 2.41229C77.4613 2.75304 72.4672 5.16761 68.7009 8.97702C72.2374 8.1633 75.91 8.07816 79.711 8.78394C95.7575 11.7635 106.718 28.2098 104.192 45.5178C104.029 46.6383 103.578 47.8995 103.313 48.9699Z" fill="#6EBB00"/>
<path d="M10.2922 59.7021H14.1704V49.9878C14.1704 46.5908 11.754 44.2069 7.30896 44.2069C3.13241 44.2069 0.924807 46.412 0.59665 49.1236H4.92236C5.01186 48.8853 5.19085 48.6767 5.39968 48.4681C5.75767 48.1403 6.32449 47.7827 7.30896 47.7827C8.83042 47.7827 9.69556 48.6767 9.69556 50.0176V50.3156H6.26482C2.08828 50.3156 0 52.4015 0 55.2323C0 57.9142 2.08827 60.0001 5.66817 60.0001C7.0703 60.0001 8.14427 59.6425 8.83042 59.1955C9.21824 58.9571 9.57623 58.689 9.84472 58.3612H9.99389L10.2922 59.7021ZM9.69556 53.5934C9.69556 55.3813 8.50226 56.5733 6.56315 56.5733C5.22069 56.5733 4.47487 55.8581 4.47487 54.9343C4.47487 54.0106 5.19085 53.2954 6.86147 53.2954H9.69556V53.5934Z" fill="#6EBB00"/>
<path d="M28.8012 59.7021H32.6794V38.8432H28.2045V45.6968H28.0554C27.7869 45.4286 27.4885 45.1604 27.1306 44.9519C26.5041 44.5943 25.5196 44.2069 24.1771 44.2069C20.1498 44.2069 16.8682 47.4847 16.8682 52.1035C16.8682 56.7223 20.1498 60.0001 24.1771 60.0001C25.6986 60.0001 26.6831 59.5531 27.3692 59.1061C27.757 58.838 28.0852 58.54 28.3537 58.2122H28.5029L28.8012 59.7021ZM24.7738 55.8283C22.8347 55.8283 21.3431 54.3682 21.3431 52.1035C21.3431 49.8388 22.8347 48.3787 24.7738 48.3787C26.7129 48.3787 28.2045 49.8388 28.2045 52.1035C28.2045 54.3682 26.7129 55.8283 24.7738 55.8283Z" fill="#6EBB00"/>
<path d="M36.405 59.7021H40.8798V44.5049H36.405V59.7021Z" fill="#6EBB00"/>
<path d="M44.4458 53.7424C44.4458 57.4672 46.9815 60.0001 50.5614 60.0001C51.9635 60.0001 53.0375 59.6425 53.7237 59.1955C54.1115 58.9571 54.4695 58.689 54.738 58.3612H54.8871L55.1855 59.7021H59.0637V44.5049H54.5888V52.8485C54.5888 54.5172 53.4253 55.6793 51.7547 55.6793C50.0841 55.6793 48.9206 54.5172 48.9206 52.8485V44.5049H44.4458V53.7424Z" fill="#6EBB00"/>
<path d="M64.1457 55.5303C64.1457 58.242 65.6075 59.7021 68.4714 59.7021H72.0513V55.5303H69.6647C68.9786 55.5303 68.6206 55.1727 68.6206 54.4874V48.6767H72.0513V44.5049H68.6206V39.7371H64.1457V44.5049H61.7591V48.6767H64.1457V55.5303Z" fill="#6EBB00"/>
<path d="M81.9042 60.0001C86.5282 60.0001 89.8098 56.7223 89.8098 52.1035C89.8098 47.4847 86.5282 44.2069 81.9042 44.2069C77.2802 44.2069 73.9986 47.4847 73.9986 52.1035C73.9986 56.7223 77.2802 60.0001 81.9042 60.0001ZM81.9042 55.8283C79.9651 55.8283 78.4735 54.3682 78.4735 52.1035C78.4735 49.8388 79.9651 48.3787 81.9042 48.3787C83.8433 48.3787 85.3349 49.8388 85.3349 52.1035C85.3349 54.3682 83.8433 55.8283 81.9042 55.8283Z" fill="#6EBB00"/>
<path d="M41.055 40.3429C41.055 41.6963 39.9566 42.7934 38.6016 42.7934C37.2467 42.7934 36.1483 41.6963 36.1483 40.3429C36.1483 38.9895 37.2467 37.8923 38.6016 37.8923C39.9566 37.8923 41.055 38.9895 41.055 40.3429Z" fill="#6EBB00"/>
</svg>
